{
  "backgroundColor": "#000000",
  "fontColor": "#ffa348",
  "flickering": 0.1,
  "horizontalSync": 0.08,
  "staticNoise": 0,
  "chromaColor": 1,
  "saturationColor": 0.5974,
  "screenCurvature": 0.0415,
  "glowingLine": 0.1476,
  "burnIn": 0,
  "bloom": 0.5017,
  "rasterization": 0,
  "jitter": 0.2,
  "rbgShift": 0,
  "brightness": 0.4974,
  "contrast": 0.8546,
  "ambientLight": 0.2,
  "windowOpacity": 1,
  "fontName": "System: C-64",
  "fontWidth": 0.65,
  "margin": 0.4974,
  "blinkingCursor": false,
  "frameMargin": 0.0536,
  "name": "c64_wide",
  "version": 2
}